Dublin Data Science Workshop on Time Series Analysis
…
In this workshop we will convert all time series into the tibbles: the package timetk allows us to do this.

airpassengers_tbl <- AirPassengers %>% tk_tbl()

airpassengers_tbl %>% print()

## # A tibble: 144 x 2
##    index         value
##    <S3: yearmon> <dbl>
##  1 Jan 1949        112
##  2 Feb 1949        118
##  3 Mar 1949        132
##  4 Apr 1949        129
##  5 May 1949        121
##  6 Jun 1949        135
##  7 Jul 1949        148
##  8 Aug 1949        148
##  9 Sep 1949        136
## 10 Oct 1949        119
## #  with 134 more rows
…
