Dublin Data Science Workshop on Probabilistic Graphical Models
…
We need to make a number of assumptions regarding genetic inheritance that we list here:

A child inherits one allele from each parent independently.

The parents two alleles have equal probability of being passed on to the child.

Each combination has probability \(0.25\); some lead to the same genotype for the child.

So in this case we have the the joint probability distribution as being

\[ P(m, f, c) = P(m) \, P(f) \, P(c \, | \, m, f) \]

## # A tibble: 27 x 4
##    child mother father  prob
##    <chr> <chr>  <chr>  <dbl>
##  1 AA    AA     AA      1   
##  2 AA    AA     AB      0.5 
##  3 AA    AA     BB      0   
##  4 AA    AB     AA      0.5 
##  5 AA    AB     AB      0.25
##  6 AA    AB     BB      0   
##  7 AA    BB     AA      0   
##  8 AA    BB     AB      0   
##  9 AA    BB     BB      0   
## 10 AB    AA     AA      0   
## #  with 17 more rows
…
