Dublin Data Science Workshop on the Statistical Analysis of Networks
…
igraph::list.vertex.attributes(USairports)

## [1] "name"     "City"     "Position"

igraph::list.edge.attributes(USairports)

## [1] "Carrier"    "Departures" "Seats"      "Passengers" "Aircraft"  
## [6] "Distance"

We see that the edges in particular now have a number of attributes. We access them through edge_attr()

edge_attr(USairports) %>%
    as_tibble()

## # A tibble: 23,473 x 6
##    Carrier                   Departures Seats Passengers Aircraft Distance
##    <chr>                          <dbl> <dbl>      <dbl>    <int>    <dbl>
##  1 British Airways Plc               1.  226.       193.      627     382.
##  2 British Airways Plc               1.  299.       253.      819     382.
##  3 British Airways Plc               1.  216.       141.      627     200.
##  4 China Airlines Ltd.              13. 5161.      3135.      819    3386.
##  5 China Airlines Ltd.              13. 5161.      4097.      819    3386.
##  6 Korean Air Lines Co. Ltd.        14. 3654.      1353.      627     236.
##  7 Lan Ecuador                       1.  204.       183.      626    1090.
##  8 Eva Airways Corporation          18. 5718.      4818.      627    3370.
##  9 G5 Executive Ag                   1.   14.         2.      667    1732.
## 10 G5 Executive Ag                   1.   14.         1.      667    1732.
## # ... with 23,463 more rows
…
igraph::list.vertex.attributes(lazega)

## [1] "name"      "Seniority" "Status"    "Gender"    "Office"    "Years"    
## [7] "Age"       "Practice"  "School"

igraph::list.edge.attributes(lazega)

## character(0)

We see that the vertices have the attributes but the edges have none.

vertex_attr(lazega) %>%
    as_tibble()

## # A tibble: 36 x 9
##    name  Seniority Status Gender Office Years   Age Practice School
##    <chr>     <int>  <int>  <int>  <int> <int> <int>    <int>  <int>
##  1 V1            1      1      1      1    31    64        1      1
##  2 V2            2      1      1      1    32    62        2      1
##  3 V3            3      1      1      2    13    67        1      1
##  4 V4            4      1      1      1    31    59        2      3
##  5 V5            5      1      1      2    31    59        1      2
##  6 V6            6      1      1      2    29    55        1      1
##  7 V7            7      1      1      2    29    63        2      3
##  8 V8            8      1      1      1    28    53        1      3
##  9 V9            9      1      1      1    25    53        2      1
## 10 V10          10      1      1      1    25    53        2      3
## # ... with 26 more rows
…
