Using RFM Models the Online Retail Dataset
…
We have some basic transaction data so we now add this to routines provided by
the rfm package.

customer_rfmdata <- daily_spend_invoice_tbl %>%
  filter(invoice_date < training_data_date) %>%
  rfm_table_order(
    customer_id   = customer_id,
    order_date    = invoice_date,
    revenue       = invoice_spend,
    analysis_date = training_data_date
    )

customer_rfmdata %>% print()

## # A tibble: 4,697 x 9
##    customer_id date_most_recent recency_days transaction_count amount
##    <chr>       <date>                  <dbl>             <dbl>  <dbl>
##  1 12346       2011-01-18                 72                12 77556.
##  2 12347       2011-01-26                 64                 3  1799.
##  3 12348       2011-01-25                 65                 3   860.
##  4 12349       2010-10-28                154                 2  2221.
##  5 12350       2011-02-02                 57                 1   294.
##  6 12351       2010-11-29                122                 1   301.
##  7 12352       2011-03-22                  9                 6   985.
##  8 12353       2010-10-27                155                 1   318.
##  9 12355       2010-05-21                314                 1   488.
## 10 12356       2011-01-18                 72                 4  5069.
## #  with 4,687 more rows, and 4 more variables: recency_score <int>,
## #   frequency_score <int>, monetary_score <int>, rfm_score <dbl>
…
