An Introduction to Bayesian Regression and Hierarchical Models
…
US Radon Measurements

## # A tibble: 12,777 x 25
##    idnum state state2 stfips zip   region typebldg floor  room basement windoor
##    <chr> <chr> <chr>  <chr>  <chr> <chr>  <chr>    <int> <int> <chr>    <chr>  
##  1 1     AZ    AZ     4      85920 1      1            1     2 N        <NA>   
##  2 2     AZ    AZ     4      85920 1      0            9     0 <NA>     <NA>   
##  3 3     AZ    AZ     4      85924 1      1            1     3 N        <NA>   
##  4 4     AZ    AZ     4      85925 1      1            1     3 N        <NA>   
##  5 5     AZ    AZ     4      85932 1      1            1     1 N        <NA>   
##  6 6     AZ    AZ     4      85936 1      1            1     1 N        <NA>   
##  7 7     AZ    AZ     4      85936 1      0            9     0 <NA>     <NA>   
##  8 8     AZ    AZ     4      85936 1      1            1     1 N        <NA>   
##  9 9     AZ    AZ     4      85938 1      0            9     0 <NA>     <NA>   
## 10 10    AZ    AZ     4      85938 1      1            1     3 <NA>     <NA>   
## # ... with 12,767 more rows, and 14 more variables: rep <chr>, stratum <chr>,
## #   wave <dbl>, starttm <chr>, stoptm <chr>, startdt <chr>, stopdt <chr>,
## #   activity <dbl>, pcterr <dbl>, adjwt <dbl>, dupflag <chr>, zipflag <chr>,
## #   cntyfips <chr>, county <chr>
…
